combine_Stats_306_Final_Project_v3
…
From the Kaggle website, we can see that about 41% of the booking took place in Portugal, 10% occurred in United Kingdom, and the rest 49% of the booking are in other countries. Therefore, our focus in this question is to study whether the peak and off seasons in Portugal, United Kingdom and other countries are the same or not.

In [16]:

season.by.country <- df %>%
       mutate(arrival_month = month(arrival_date)) %>%
       filter(is_canceled == 0) %>%
       group_by(arrival_month,country_full_name) %>%
       summarize(total_booking_per_month = n()) %>%
       print()

`summarise()` regrouping output by 'arrival_month' (override with `.groups` argument)

# A tibble: 1,006 x 3
# Groups:   arrival_month [12]
   arrival_month country_full_name total_booking_per_month
           <dbl> <chr>                               <int>
 1             1 Albania                                 3
 2             1 Algeria                                 4
 3             1 American Samoa                          1
 4             1 Angola                                 28
 5             1 Antarctica                              1
 6             1 Argentina                              16
 7             1 Armenia                                 1
 8             1 Australia                              23
 9             1 Austria                                23
10             1 Belarus                                 1
#  with 996 more rows
…
ggplot(travel_behavior, aes(x = arrival_date, y = travelers)) + 
geom_bar(stat = "identity") + 
ggtitle("Travel Behavior of Consumers with Children over June 2015 to June 2017") + 
xlab("Arrival Date of Consumer") + 
ylab("Number of Travelers")
ggplot(travel_behavior_month, aes(x = arrival_month, y = travelers)) + 
geom_bar(stat = "identity") + ggtitle("Travel Behavior of Consumers with Children by month") + 
xlab("Arrival Month of Consumer") + ylab("Number of Travelers") + 
scale_x_discrete(limits = c(1:12))

`summarise()` ungrouping output (override with `.groups` argument)

# A tibble: 771 x 2
   arrival_date travelers
   <date>           <int>
 1 2015-07-01           2
 2 2015-07-02           2
 3 2015-07-03           3
 4 2015-07-04           5
 5 2015-07-05           6
 6 2015-07-06           4
 7 2015-07-07           6
 8 2015-07-08           2
 9 2015-07-09           4
10 2015-07-10           9
#  with 761 more rows
…
From the perspective of hotels, it is useful to know the optimal length of staying nights to get the best daily rate and improve their profits. So we calculate the total number of bookings and total ADR for different staying nights based on the hotel types.

In [54]:

city_nights_stay <- filter(df, is_canceled == 0) %>%
    filter(total_nights_stayed!=0) %>%
    filter(hotel == 'City Hotel') %>%
    group_by(total_nights_stayed) %>%
    summarize(Hotel = hotel, count = n(), total_adr = sum(adr)) %>%
    unique() %>%
    arrange(desc(total_adr)) %>% print

`summarise()` regrouping output by 'total_nights_stayed' (override with `.groups` argument)

# A tibble: 32 x 4
# Groups:   total_nights_stayed [32]
   total_nights_stayed Hotel      count total_adr
                 <int> <fct>      <int>     <dbl>
 1                   3 City Hotel 11893  1278806.
 2                   2 City Hotel 10991  1162637.
 3                   1 City Hotel  9169   965927.
 4                   4 City Hotel  7703   820220.
 5                   5 City Hotel  3221   344349.
 6                   7 City Hotel  1251   135453.
 7                   6 City Hotel  1116   121563.
 8                   8 City Hotel   209    22179.
 9                   9 City Hotel   120    13542.
10                  10 City Hotel    83     8393.
#  with 22 more rows

In [55]:

resort_nights_stay <- filter(df, is_canceled == 0) %>%
    filter(total_nights_stayed != 0) %>%
    filter(hotel == 'Resort Hotel') %>%
    group_by(total_nights_stayed) %>%
    summarize(Hotel = hotel, count = n(), total_adr = sum(adr)) %>%
    unique() %>%
    arrange(desc(total_adr)) %>% print

`summarise()` regrouping output by 'total_nights_stayed' (override with `.groups` argument)

# A tibble: 32 x 4
# Groups:   total_nights_stayed [32]
   total_nights_stayed Hotel        count total_adr
                 <int> <fct>        <int>     <dbl>
 1                   1 Resort Hotel  6369   474995.
 2                   7 Resort Hotel  4427   430726.
 3                   2 Resort Hotel  4382   394576.
 4                   3 Resort Hotel  3796   357971.
 5                   4 Resort Hotel  3303   316236.
 6                   5 Resort Hotel  1889   207994.
 7                   6 Resort Hotel  1199   144859.
 8                  10 Resort Hotel   695    70595.
 9                  14 Resort Hotel   627    54700.
10                   8 Resort Hotel   507    54159.
#  with 22 more rows
…
